index
…
#in dplyr, first argument is always the data. Subsequent arguments say what to do with it
#result is new data frame

# 1. pick out observations by value (pick out rows)
filter(gapminder, lifeExp < 29)

## # A tibble: 2 x 6
##       country  year     pop continent lifeExp gdpPercap
##         <chr> <int>   <dbl>     <chr>   <dbl>     <dbl>
## 1 Afghanistan  1952 8425333      Asia  28.801  779.4453
## 2      Rwanda  1992 7290203    Africa  23.599  737.0686

filter(gapminder, country %in% c("Mexico", "Peru"))

## # A tibble: 24 x 6
##    country  year      pop continent lifeExp gdpPercap
##      <chr> <int>    <dbl>     <chr>   <dbl>     <dbl>
##  1  Mexico  1952 30144317  Americas  50.789  3478.126
##  2  Mexico  1957 35015548  Americas  55.190  4131.547
##  3  Mexico  1962 41121485  Americas  58.299  4581.609
##  4  Mexico  1967 47995559  Americas  60.110  5754.734
##  5  Mexico  1972 55984294  Americas  62.361  6809.407
##  6  Mexico  1977 63759976  Americas  65.032  7674.929
##  7  Mexico  1982 71640904  Americas  67.405  9611.148
##  8  Mexico  1987 80122492  Americas  69.498  8688.156
##  9  Mexico  1992 88111030  Americas  71.455  9472.384
## 10  Mexico  1997 95895146  Americas  73.670  9767.298
## # ... with 14 more rows
…
